[
    {
        "Type": "FullyConnected",
        "Hidden": 30
    },
    {
        "Type": "FullyConnected",
        "Hidden": 10
    },
    {
        "Type": "FullyConnected",
        "Hidden": 3,
        "Activate": "Sigmoid",
        "Bias": 0
    }
]