[
    {
        "Type": "Convolution",
        "NumKernel": 20,
        "KernSize": 4,
        "Stride": 2
    },
    {
        "Type": "Polling",
        "Stride": 3
    },
    {
        "Type": "Convolution",
        "NumKernel": 20,
        "KernSize": 3,
        "Stride": 2
    },
    {
        "Type": "Polling",
        "Stride": 2
    },
    {
        "Type": "Normalize"
    },
    {
        "Type": "FullyConnected",
        "Hidden": 50
    },
    {
        "Type": "FullyConnected",
        "Hidden": 6,
        "Activate": "Sigmoid",
        "Bias": 0
    }
]